{
    "1":{
       "nombre":"CL-Andalucia-Extremadura",
       "localizacion":"Sevilla",
       "provincias":[
          "Almeria",
          "Cadiz",
          "Cordoba",
          "Granada",
          "Huelva",
          "Jaen",
          "Malaga",
          "Sevilla",
          "Badajoz",
          "Caceres",
          "Melilla",
          "Ceuta"
       ],
       "conexiones":[
          2,
          3
       ]
    },
    "2":{
       "nombre":"CL-Castilla-La-Mancha",
       "localizacion":"Toledo",
       "provincias":[
          "Albacete",
          "Ciudad-Real",
          "Cuenca",
          "Guadalajara",
          "Toledo"
       ],
       "conexiones":[
          1,
          9,
          3
       ]
    },
    "3":{
       "nombre":"CL-Levante",
       "localizacion":"Valencia",
       "provincias":[
          "Castellon",
          "Valencia",
          "Alicante",
          "Murcia",
          "Islas-Baleares"
       ],
       "conexiones":[
          2,
          1,
          5
       ]
    },
    "4":{
       "nombre":"CL-Castilla-Leon-Rioja",
       "localizacion":"Valladolid",
       "provincias":[
          "Leon",
          "Zamora",
          "Salamanca",
          "Palencia",
          "Valladolid",
          "Avila",
          "Burgos",
          "Segovia",
          "Soria",
          "La-Rioja"
       ],
       "conexiones":[
          9,
          7,
          8,
          6
       ]
    },
    "5":{
       "nombre":"CL-Cataluna",
       "localizacion":"Barcelona",
       "provincias":[
          "Lleida",
          "Girona",
          "Barcelona",
          "Tarragona"
       ],
       "conexiones":[
          3,
          6
       ]
    },
    "6":{
       "nombre":"CL-Aragon-Navarra",
       "localizacion":"Zaragoza",
       "provincias":[
          "Zaragoza",
          "Huesca",
          "Navarra",
          "Teruel"
       ],
       "conexiones":[
          9,
          5,
          7,
          4
       ]
    },
    "7":{
       "nombre":"CL-Pais-Vasco-Cantabria",
       "localizacion":"Vitoria",
       "provincias":[
          "Vizcaya",
          "Alava",
          "San Sebastian",
          "Cantabria"
       ],
       "conexiones":[
          6,
          4,
          8
       ]
    },
    "8":{
       "nombre":"CL-Galicia-Asturias",
       "localizacion":"Orense",
       "provincias":[
          "La-Coruna",
          "Lugo",
          "Orense",
          "Pontevedra",
          "Asturias"
       ],
       "conexiones":[
          7,
          4
       ]
    },
    "9":{
       "nombre":"CL-Madrid",
       "localizacion":"Madrid",
       "provincias":[
          "Madrid"
       ],
       "conexiones":[
          6,
          4,
          2,
          10
       ]
    },
    "10":{
       "nombre":"CL-Canarias",
       "localizacion":"Santa-Cruz-de-Tenerife",
       "provincias":[
          "Santa-Cruz-de-Tenerife",
          "Las-Palmas"
       ],
       "conexiones":[
          9
       ]
    }
 }